    ⊂_ヽ                 
    　 ＼＼ ＿              Meowl space!
    　　 ＼(　•_•) F         
    　　　 <　⌒ヽ A          A simple homepage to jump into the service that you want
    　　　/ 　 へ＼ B          
    　　 /　　/　＼＼ U        Check our repo here 🚀 https://gitlab.com/marlucio/meow, it's open source!
    　　 ﾚ　ノ　　 ヽ_つ L        Please complain and change stuff, very much appreciated loveness  ♡ ♥💕❤
    　　/　/ O                 
    　 /　/ U                    May the Meow be with you Meower Ranger!
    　(　(ヽ S                   https://www.youtube.com/watch?v=KHBEwhJ15k0&ab_channel=PowerRangers
    　|　|、＼.
    　| 丿 ＼ ⌒)
    　| |　　) /
    ノ )　　Lﾉ__